%YAML 1.1
%TAG !u! tag:unity3d.com,2011:
--- !u!74 &7400000
AnimationClip:
  m_ObjectHideFlags: 0
  m_CorrespondingSourceObject: {fileID: 0}
  m_PrefabInstance: {fileID: 0}
  m_PrefabAsset: {fileID: 0}
  m_Name: Vortex
  serializedVersion: 7
  m_Legacy: 0
  m_Compressed: 0
  m_UseHighQualityCurve: 1
  m_RotationCurves: []
  m_CompressedRotationCurves: []
  m_EulerCurves: []
  m_PositionCurves: []
  m_ScaleCurves: []
  m_FloatCurves: []
  m_PPtrCurves:
  - serializedVersion: 2
    curve:
    - time: 0
      value: {fileID: -1272171076, guid: a52bc7fa254cb3e49b92a437728bafeb, type: 3}
    - time: 0.033333335
      value: {fileID: 601504680, guid: a52bc7fa254cb3e49b92a437728bafeb, type: 3}
    - time: 0.06666667
      value: {fileID: 1953579507, guid: a52bc7fa254cb3e49b92a437728bafeb, type: 3}
    - time: 0.1
      value: {fileID: -318611187, guid: a52bc7fa254cb3e49b92a437728bafeb, type: 3}
    - time: 0.13333334
      value: {fileID: 247879811, guid: a52bc7fa254cb3e49b92a437728bafeb, type: 3}
    - time: 0.16666667
      value: {fileID: 1831515750, guid: a52bc7fa254cb3e49b92a437728bafeb, type: 3}
    - time: 0.2
      value: {fileID: 1269984771, guid: a52bc7fa254cb3e49b92a437728bafeb, type: 3}
    - time: 0.23333333
      value: {fileID: -1739210625, guid: a52bc7fa254cb3e49b92a437728bafeb, type: 3}
    - time: 0.26666668
      value: {fileID: 178622606, guid: a52bc7fa254cb3e49b92a437728bafeb, type: 3}
    - time: 0.3
      value: {fileID: 703450775, guid: a52bc7fa254cb3e49b92a437728bafeb, type: 3}
    - time: 0.33333334
      value: {fileID: 290720262, guid: a52bc7fa254cb3e49b92a437728bafeb, type: 3}
    - time: 0.36666667
      value: {fileID: -212916213, guid: a52bc7fa254cb3e49b92a437728bafeb, type: 3}
    - time: 0.4
      value: {fileID: 820376796, guid: a52bc7fa254cb3e49b92a437728bafeb, type: 3}
    - time: 0.43333334
      value: {fileID: -2061996487, guid: a52bc7fa254cb3e49b92a437728bafeb, type: 3}
    - time: 0.46666667
      value: {fileID: 2091243696, guid: a52bc7fa254cb3e49b92a437728bafeb, type: 3}
    - time: 0.5
      value: {fileID: -1637574596, guid: a52bc7fa254cb3e49b92a437728bafeb, type: 3}
    - time: 0.53333336
      value: {fileID: 166933022, guid: a52bc7fa254cb3e49b92a437728bafeb, type: 3}
    - time: 0.56666666
      value: {fileID: -1943272192, guid: a52bc7fa254cb3e49b92a437728bafeb, type: 3}
    - time: 0.6
      value: {fileID: -197178115, guid: a52bc7fa254cb3e49b92a437728bafeb, type: 3}
    - time: 0.6333333
      value: {fileID: -1009607169, guid: a52bc7fa254cb3e49b92a437728bafeb, type: 3}
    attribute: m_Sprite
    path: 
    classID: 212
    script: {fileID: 0}
    flags: 2
  m_SampleRate: 30
  m_WrapMode: 0
  m_Bounds:
    m_Center: {x: 0, y: 0, z: 0}
    m_Extent: {x: 0, y: 0, z: 0}
  m_ClipBindingConstant:
    genericBindings:
    - serializedVersion: 2
      path: 0
      attribute: 0
      script: {fileID: 0}
      typeID: 212
      customType: 23
      isPPtrCurve: 1
      isIntCurve: 0
      isSerializeReferenceCurve: 0
    pptrCurveMapping:
    - {fileID: -1272171076, guid: a52bc7fa254cb3e49b92a437728bafeb, type: 3}
    - {fileID: 601504680, guid: a52bc7fa254cb3e49b92a437728bafeb, type: 3}
    - {fileID: 1953579507, guid: a52bc7fa254cb3e49b92a437728bafeb, type: 3}
    - {fileID: -318611187, guid: a52bc7fa254cb3e49b92a437728bafeb, type: 3}
    - {fileID: 247879811, guid: a52bc7fa254cb3e49b92a437728bafeb, type: 3}
    - {fileID: 1831515750, guid: a52bc7fa254cb3e49b92a437728bafeb, type: 3}
    - {fileID: 1269984771, guid: a52bc7fa254cb3e49b92a437728bafeb, type: 3}
    - {fileID: -1739210625, guid: a52bc7fa254cb3e49b92a437728bafeb, type: 3}
    - {fileID: 178622606, guid: a52bc7fa254cb3e49b92a437728bafeb, type: 3}
    - {fileID: 703450775, guid: a52bc7fa254cb3e49b92a437728bafeb, type: 3}
    - {fileID: 290720262, guid: a52bc7fa254cb3e49b92a437728bafeb, type: 3}
    - {fileID: -212916213, guid: a52bc7fa254cb3e49b92a437728bafeb, type: 3}
    - {fileID: 820376796, guid: a52bc7fa254cb3e49b92a437728bafeb, type: 3}
    - {fileID: -2061996487, guid: a52bc7fa254cb3e49b92a437728bafeb, type: 3}
    - {fileID: 2091243696, guid: a52bc7fa254cb3e49b92a437728bafeb, type: 3}
    - {fileID: -1637574596, guid: a52bc7fa254cb3e49b92a437728bafeb, type: 3}
    - {fileID: 166933022, guid: a52bc7fa254cb3e49b92a437728bafeb, type: 3}
    - {fileID: -1943272192, guid: a52bc7fa254cb3e49b92a437728bafeb, type: 3}
    - {fileID: -197178115, guid: a52bc7fa254cb3e49b92a437728bafeb, type: 3}
    - {fileID: -1009607169, guid: a52bc7fa254cb3e49b92a437728bafeb, type: 3}
  m_AnimationClipSettings:
    serializedVersion: 2
    m_AdditiveReferencePoseClip: {fileID: 0}
    m_AdditiveReferencePoseTime: 0
    m_StartTime: 0
    m_StopTime: 0.6666667
    m_OrientationOffsetY: 0
    m_Level: 0
    m_CycleOffset: 0
    m_HasAdditiveReferencePose: 0
    m_LoopTime: 1
    m_LoopBlend: 0
    m_LoopBlendOrientation: 0
    m_LoopBlendPositionY: 0
    m_LoopBlendPositionXZ: 0
    m_KeepOriginalOrientation: 0
    m_KeepOriginalPositionY: 1
    m_KeepOriginalPositionXZ: 0
    m_HeightFromFeet: 0
    m_Mirror: 0
  m_EditorCurves: []
  m_EulerEditorCurves: []
  m_HasGenericRootTransform: 0
  m_HasMotionFloatCurves: 0
  m_Events: []
