%YAML 1.1
%TAG !u! tag:unity3d.com,2011:
--- !u!74 &7400000
AnimationClip:
  m_ObjectHideFlags: 0
  m_CorrespondingSourceObject: {fileID: 0}
  m_PrefabInstance: {fileID: 0}
  m_PrefabAsset: {fileID: 0}
  m_Name: IdleRight_1
  serializedVersion: 7
  m_Legacy: 0
  m_Compressed: 0
  m_UseHighQualityCurve: 1
  m_RotationCurves: []
  m_CompressedRotationCurves: []
  m_EulerCurves: []
  m_PositionCurves: []
  m_ScaleCurves: []
  m_FloatCurves: []
  m_PPtrCurves:
  - serializedVersion: 2
    curve:
    - time: 0
      value: {fileID: -287015229, guid: 27bd017ba2f20db408f4bff39765dc8e, type: 3}
    - time: 0.2
      value: {fileID: -1472706191, guid: 187e719e5b8cdc24ab11107a69b85b27, type: 3}
    - time: 0.4
      value: {fileID: 417544412, guid: d5a4635ac7d3c6f47b488d2b2474dd5c, type: 3}
    - time: 0.6
      value: {fileID: 1065834665, guid: bda5e9f222437eb49941c2c907735430, type: 3}
    - time: 0.8
      value: {fileID: 1355516873, guid: a4058075af7a8fa46a5ac6c0e89251e8, type: 3}
    - time: 1
      value: {fileID: 1503484249, guid: fb2d3d7a45bfebc4abdebfc58be10b34, type: 3}
    - time: 1.2
      value: {fileID: 1801556918, guid: e9e17f2353fff8741b4f07ebdab65a1d, type: 3}
    - time: 1.4
      value: {fileID: 894218540, guid: 687fe33d797f4d24abf2a01b01384f7c, type: 3}
    - time: 1.6
      value: {fileID: 91604689, guid: a7d4496bc8f4a434a9c6e66d2125fe26, type: 3}
    - time: 1.8
      value: {fileID: 894218540, guid: 687fe33d797f4d24abf2a01b01384f7c, type: 3}
    - time: 2
      value: {fileID: 1801556918, guid: e9e17f2353fff8741b4f07ebdab65a1d, type: 3}
    - time: 2.2
      value: {fileID: 1503484249, guid: fb2d3d7a45bfebc4abdebfc58be10b34, type: 3}
    - time: 2.4
      value: {fileID: 1355516873, guid: a4058075af7a8fa46a5ac6c0e89251e8, type: 3}
    - time: 2.6
      value: {fileID: 1065834665, guid: bda5e9f222437eb49941c2c907735430, type: 3}
    - time: 2.8
      value: {fileID: 417544412, guid: d5a4635ac7d3c6f47b488d2b2474dd5c, type: 3}
    - time: 3
      value: {fileID: -1472706191, guid: 187e719e5b8cdc24ab11107a69b85b27, type: 3}
    attribute: m_Sprite
    path: 
    classID: 212
    script: {fileID: 0}
    flags: 2
  m_SampleRate: 5
  m_WrapMode: 0
  m_Bounds:
    m_Center: {x: 0, y: 0, z: 0}
    m_Extent: {x: 0, y: 0, z: 0}
  m_ClipBindingConstant:
    genericBindings:
    - serializedVersion: 2
      path: 0
      attribute: 0
      script: {fileID: 0}
      typeID: 212
      customType: 23
      isPPtrCurve: 1
      isIntCurve: 0
      isSerializeReferenceCurve: 0
    pptrCurveMapping:
    - {fileID: -287015229, guid: 27bd017ba2f20db408f4bff39765dc8e, type: 3}
    - {fileID: -1472706191, guid: 187e719e5b8cdc24ab11107a69b85b27, type: 3}
    - {fileID: 417544412, guid: d5a4635ac7d3c6f47b488d2b2474dd5c, type: 3}
    - {fileID: 1065834665, guid: bda5e9f222437eb49941c2c907735430, type: 3}
    - {fileID: 1355516873, guid: a4058075af7a8fa46a5ac6c0e89251e8, type: 3}
    - {fileID: 1503484249, guid: fb2d3d7a45bfebc4abdebfc58be10b34, type: 3}
    - {fileID: 1801556918, guid: e9e17f2353fff8741b4f07ebdab65a1d, type: 3}
    - {fileID: 894218540, guid: 687fe33d797f4d24abf2a01b01384f7c, type: 3}
    - {fileID: 91604689, guid: a7d4496bc8f4a434a9c6e66d2125fe26, type: 3}
    - {fileID: 894218540, guid: 687fe33d797f4d24abf2a01b01384f7c, type: 3}
    - {fileID: 1801556918, guid: e9e17f2353fff8741b4f07ebdab65a1d, type: 3}
    - {fileID: 1503484249, guid: fb2d3d7a45bfebc4abdebfc58be10b34, type: 3}
    - {fileID: 1355516873, guid: a4058075af7a8fa46a5ac6c0e89251e8, type: 3}
    - {fileID: 1065834665, guid: bda5e9f222437eb49941c2c907735430, type: 3}
    - {fileID: 417544412, guid: d5a4635ac7d3c6f47b488d2b2474dd5c, type: 3}
    - {fileID: -1472706191, guid: 187e719e5b8cdc24ab11107a69b85b27, type: 3}
  m_AnimationClipSettings:
    serializedVersion: 2
    m_AdditiveReferencePoseClip: {fileID: 0}
    m_AdditiveReferencePoseTime: 0
    m_StartTime: 0
    m_StopTime: 3.2
    m_OrientationOffsetY: 0
    m_Level: 0
    m_CycleOffset: 0
    m_HasAdditiveReferencePose: 0
    m_LoopTime: 1
    m_LoopBlend: 0
    m_LoopBlendOrientation: 0
    m_LoopBlendPositionY: 0
    m_LoopBlendPositionXZ: 0
    m_KeepOriginalOrientation: 0
    m_KeepOriginalPositionY: 1
    m_KeepOriginalPositionXZ: 0
    m_HeightFromFeet: 0
    m_Mirror: 0
  m_EditorCurves: []
  m_EulerEditorCurves: []
  m_HasGenericRootTransform: 0
  m_HasMotionFloatCurves: 0
  m_Events: []
